{
  "name": "recogapi",
  "version": "1.0.0",
  "main": "server/server.js",
  "engines": {
    "node": ">=4"
  },
  "scripts": {
    "lint": "eslint .",
    "start": "node .",
    "posttest": "npm run lint"
  },
  "dependencies": {
    "@tensorflow/tfjs": "^0.13.2",
    "@tensorflow/tfjs-node": "^0.1.21",
    "canvas": "^2.1.0",
    "compression": "^1.0.3",
    "cors": "^2.5.2",
    "helmet": "^3.10.0",
    "loopback": "^3.22.0",
    "loopback-boot": "^2.6.5",
    "loopback-component-explorer": "^6.2.0",
    "loopback-component-storage": "^3.5.0",
    "loopback-connector-mongodb": "^3.8.0",
    "multiparty": "^4.2.1",
    "opencv4nodejs": "^4.10.0",
    "serve-favicon": "^2.0.1",
    "strong-error-handler": "^3.0.0"
  },
  "devDependencies": {
    "eslint": "^3.17.1",
    "eslint-config-loopback": "^8.0.0"
  },
  "repository": {
    "type": "",
    "url": ""
  },
  "license": "UNLICENSED",
  "description": "recogapi"
}
